<?xml version="1.0" encoding="utf-8"?>
<!-- Generator: Adobe Illustrator 12.0.0, SVG Export Plug-In  -->
<!DOCTYPE svg PUBLIC "-//W3C//DTD SVG 1.1//EN" "http://www.w3.org/Graphics/SVG/1.1/DTD/svg11.dtd" [
	<!ENTITY ns_flows "http://ns.adobe.com/Flows/1.0/">
	<!ENTITY ns_svg "http://www.w3.org/2000/svg">
	<!ENTITY ns_xlink "http://www.w3.org/1999/xlink">
]>
<svg  version="1.1" xmlns="&ns_svg;" xmlns:xlink="&ns_xlink;" xmlns:a="http://ns.adobe.com/AdobeSVGViewerExtensions/3.0/"
	 width="264" height="155" viewBox="-82.676 -28.702 264 155" enable-background="new -82.676 -28.702 264 155"
	 xml:space="preserve">
<defs>
</defs>
<path fill="#66A470" d="M48.947,0C22,0,0,22,0,48.947s22,48.947,48.947,48.947s48.947-22,48.947-48.947S75.895,0,48.947,0z
	 M48.947,96C23,96,1.842,74.842,1.842,48.895C1.842,22.948,23,1.824,48.947,1.824S96,22.982,96,48.895
	C96,74.842,74.842,96,48.947,96z"/>
<path fill="#66A470" d="M48.947,3.719c-24.896,0-45.228,20.333-45.228,45.228s20.333,45.21,45.228,45.21
	c24.895,0,45.229-20.333,45.229-45.227C94.176,24.035,73.842,3.719,48.947,3.719z M90.158,43.087l-5.895,5.965l6.35-0.561
	l0.104,1.105l-8.192,0.719l-0.053-1.052l5.896-5.895l-6.351,0.562l-0.105-1.175l8.193-0.72L90.158,43.087z M79.912,21.315L74.509,26
	l2.562,2.947L76.3,29.614l-3.334-3.842l6.177-5.404L79.912,21.315z M74.842,16.474l-5.07,6.456l-0.946-0.719l5.018-6.456
	L74.842,16.474z M61.475,14.298l1.946-4.351l1.054,0.509l-1.896,4.281c-0.279,0.667-0.508,1.175-0.332,1.667
	c0.229,0.719,0.666,1.228,1.455,1.562c1.334,0.561,2.51,0.228,2.947-0.895l2.123-4.789l1.053,0.438l-2.176,4.79
	c-0.719,1.667-2.562,2.228-4.455,1.386c-1.176-0.509-1.896-1.333-2.176-2.386C60.807,15.754,61.088,15.14,61.475,14.298z
	 M53.563,7.614l2.332,0.438c1.614,0.281,2.388,1.229,2.176,2.562c-0.176,0.842-0.613,1.333-1.508,1.456
	c1.104,0.509,1.666,1.386,1.455,2.386c-0.229,1.333-1.387,2-3.123,1.719l-2.789-0.509L53.563,7.614z M36.631,9.175l6.686,4.965
	L41.93,7.965l1.105-0.281l1.842,8.018l-1,0.228l-6.684-5.018l1.456,6.246l-1.105,0.281l-1.842-7.965L36.631,9.175z M32.018,11.018
	l0.509,0.947l-3.333,1.719l1.105,2.228l3.28-1.667l0.439,0.947l-3.228,1.667l1.175,2.281l3.456-1.79l0.509,0.947l-4.509,2.281
	l-3.737-7.298L32.018,11.018z M24.333,15.368L25,16.14l-2.895,2.403l1.614,1.895l2.79-2.333l0.667,0.842l-2.79,2.316l1.667,1.947
	L29,20.702l0.667,0.842l-3.877,3.229l-5.298-6.298L24.333,15.368z M15.982,23.824c1.053-1.281,2.281-1.509,3.403-0.614
	c0.842,0.667,1,1.456,0.614,2.456c0.386-0.175,0.772-0.105,1.228-0.053l3.562,0.333l-0.895,1.105l-2.562-0.28
	c-1.175-0.105-1.842-0.176-2.386,0.561l-0.228,0.281l2.842,2.281l-0.72,0.895l-6.403-5.175L15.982,23.824z M7.351,46.158
	c0.053-0.614,0.281-1.228,0.72-1.79l1.333,0.105c-0.614,0.614-0.947,1.175-1,1.842c-0.053,0.719,0.333,1.281,0.895,1.281
	c0.614,0.053,1.052-0.509,1.789-1.456c0.842-1.105,1.457-1.79,2.842-1.667c1.228,0.105,2.053,1.175,1.947,2.614
	c-0.053,0.842-0.386,1.509-0.947,2.123l-1.562-0.105c0.895-0.614,1.333-1.228,1.386-2c0.053-0.842-0.281-1.333-0.947-1.386
	c-0.667-0.053-1.053,0.386-1.667,1.228c-1,1.281-1.562,1.947-2.737,1.842C8.07,48.667,7.228,47.614,7.351,46.158z M14.807,42.982
	c0.052-0.386,0.438-0.614,0.842-0.562c0.386,0.053,0.614,0.438,0.562,0.842c-0.053,0.386-0.438,0.614-0.842,0.561
	C14.982,43.702,14.702,43.368,14.807,42.982z M15.859,52.28c0,0.387-0.281,0.72-0.667,0.771c-0.386,0-0.719-0.279-0.772-0.667
	c0-0.386,0.281-0.719,0.667-0.772C15.526,51.614,15.859,51.896,15.859,52.28z M16.14,60.298c-0.562,0.667-1.228,0.895-2.123,1.053
	l-4.614,1.053l-0.281-1.104l4.562-1.053c0.719-0.177,1.228-0.28,1.562-0.72c0.438-0.613,0.562-1.332,0.386-2.123
	c-0.333-1.385-1.333-2.123-2.509-1.842L8.07,56.737l-0.28-1.106l5.123-1.175c1.79-0.387,3.333,0.667,3.79,2.736
	C17.035,58.351,16.807,59.403,16.14,60.298z M17.035,37.14c-1.228,0.772-2.737,0.895-4.07,0.228c-1-0.438-1.79-1.333-2.175-2.386
	c-0.386-1.176-0.281-2.281,0.281-3.509c0.386-0.842,0.947-1.562,1.789-2.228l1.176,0.561c-0.895,0.667-1.562,1.386-1.948,2.176
	c-0.842,1.79-0.175,3.614,1.457,4.351c1.561,0.719,3.403,0.053,4.175-1.614c0.228-0.509,0.386-1.053,0.386-1.719l-1.456-0.667
	l-0.562,1.386l-1-0.438l1.176-2.509l3.175,1.456c-0.053,1.175-0.228,2.123-0.614,2.947C18.368,36.018,17.824,36.684,17.035,37.14z
	 M27.895,76.069c-1.509-1.229-3.456-1-4.562,0.334c-1.105,1.387-0.895,3.281,0.562,4.455c0.719,0.615,1.719,0.947,2.895,1.105
	l-0.842,1c-1.053-0.229-2-0.667-2.79-1.279c-0.719-0.615-1.228-1.334-1.509-2.177c-0.438-1.387-0.175-2.842,0.719-3.946
	c0.667-0.896,1.719-1.388,2.842-1.511c1.228-0.104,2.281,0.281,3.333,1.104c0.895,0.721,1.386,1.511,1.789,2.281l-0.771,1
	C29.123,77.456,28.562,76.667,27.895,76.069z M37.474,85.14c-0.438,1-1.333,1.791-2.386,2.176c-1.105,0.388-2.28,0.334-3.333-0.176
	c-1.053-0.508-1.842-1.385-2.281-2.385c-0.438-1.105-0.386-2.229,0.105-3.281c0.439-1,1.386-1.613,2.386-2.176
	c1-0.509,1.947-0.666,3.281,0.176c1,0.613,1.895,1.387,2.281,2.457C38.035,82.965,37.982,84.019,37.474,85.14z M46.053,87.877
	c-0.334,1.79-1.947,2.737-4.07,2.333c-1.228-0.229-2.123-0.895-2.667-1.842c-0.386-0.771-0.281-1.456-0.105-2.334l0.895-4.684
	l1.106,0.229l-0.895,4.613c-0.105,0.72-0.229,1.229,0.052,1.72c0.386,0.614,0.947,1.053,1.79,1.228
	c1.386,0.281,2.454-0.332,2.735-1.508l1-5.123l1.176,0.176L46.053,87.877z M18.596,48.947c0-16.702,13.649-30.351,30.351-30.351
	c16.701,0,30.352,13.649,30.352,30.351c0,16.703-13.65,30.351-30.352,30.351C32.193,79.298,18.596,65.649,18.596,48.947z
	 M56.475,90.034l-6.123-5.684l0.771,6.352l-1.176,0.104L49,82.685l1-0.104l6.123,5.685l-0.771-6.352l1.176-0.105l1,8.123
	L56.475,90.034z M65.105,87.474c-0.896,0.334-1.789,0.387-2.614,0.229c-1.456-0.334-2.562-1.281-3.07-2.615
	c-0.386-1-0.333-2.228,0.104-3.228c0.51-1.053,1.387-1.844,2.615-2.334c1.053-0.387,2-0.438,2.842-0.387l0.438,1.176
	c-1.104-0.176-2.053-0.104-2.895,0.229c-1.844,0.72-2.614,2.508-1.948,4.123c0.614,1.612,2.387,2.385,4.123,1.719
	c0.896-0.334,1.667-1,2.387-1.946l0.438,1.229C66.877,86.526,66.053,87.14,65.105,87.474z M71.387,84.087l-4.563-6.789l0.947-0.666
	l4.562,6.789L71.387,84.087z M76.352,80.351l-5.686-5.895l0.843-0.771l4.966,5.123l2.789-2.738l0.719,0.772L76.352,80.351z
	 M78.299,33.123l-1.387-2.667l7.246-3.842l1.386,2.667c0.509,0.947,0.772,1.842,0.667,2.789c-0.176,1.333-0.947,2.456-2.176,3.123
	c-1.281,0.667-2.667,0.667-3.842,0.053C79.402,34.789,78.859,34.123,78.299,33.123z M80.754,38.859l7.859-2.281l0.334,1.105
	l-7.912,2.281L80.754,38.859z M89.491,58.298c-0.228,0.895-0.614,1.721-1.28,2.563l-1.229-0.28c0.771-0.843,1.229-1.667,1.455-2.562
	c0.438-1.896-0.613-3.563-2.279-3.949c-1.721-0.385-3.334,0.615-3.79,2.457c-0.104,0.562-0.104,1.104,0,1.789l1.562,0.388
	l0.334-1.509l1.053,0.228l-0.614,2.666L81.3,59.317c-0.229-1.105-0.229-2.123,0-3c0.228-0.947,0.666-1.791,1.279-2.334
	c1.053-1,2.457-1.385,3.896-1.053c1.053,0.281,2,0.947,2.614,1.896C89.648,55.842,89.771,57.019,89.491,58.298z"/>
<path fill="#66A470" d="M34.807,80.403c-0.772-0.334-1.614-0.387-2.386-0.105c-0.772,0.282-1.386,0.895-1.79,1.614
	c-0.386,0.772-0.386,1.614-0.105,2.386c0.281,0.771,0.895,1.387,1.614,1.789c0.772,0.387,1.614,0.387,2.386,0.105
	c0.772-0.28,1.386-0.842,1.79-1.613c0.333-0.771,0.386-1.614,0.105-2.387C36.14,81.403,35.579,80.737,34.807,80.403z"/>
<path fill="#66A470" d="M84.596,29.789c1,1.842,0.439,3.457-1.104,4.281c-1.544,0.825-3.176,0.386-4.176-1.509l-0.896-1.614
	l5.298-2.79L84.596,29.789L84.596,29.789z"/>
<path fill="#66A470" d="M53.912,12.351l1.334,0.228c1.229,0.228,1.719,0.719,1.561,1.614s-0.719,1.105-1.842,0.947l-1.563-0.281
	L53.912,12.351L53.912,12.351z"/>
<path fill="#66A470" d="M54.07,11.298l0.438-2.386l1.104,0.175c0.949,0.176,1.388,0.562,1.229,1.386
	c-0.176,0.895-0.771,1.175-1.946,1L54.07,11.298L54.07,11.298z"/>
<path fill="#66A470" d="M17.93,27l-2-1.614l0.614-0.772c0.667-0.842,1.28-1.053,2-0.438c0.667,0.562,0.667,1.228,0,2.053L17.93,27
	L17.93,27z"/>
<path fill="#66A470" d="M53.684,67.368c5.019-4.403,9.07-10.526,13.756-18.596c1-1.72,1.895-1.053,1,0.719
	c-3.791,7.246-8.526,13.701-13.86,19.158c-0.279,1.508,1,2.228,2,2.175c1.334-0.052,2.387-1.333,2.668-2.175
	c2,0.279,5.401,0.438,5.842-1.615c0.177-0.771-0.053-1.508-0.28-2.176c2.387-0.385,5.299-2.174,5.403-4.562
	c0.054-0.842-0.614-1.509-1.104-1.946C71,57.456,73.842,56.403,73.456,54c-0.104-0.772-1.175-1.333-1.843-1.79
	c1.334-1.229,3.07-3.228,2.123-4.79c-0.719-1.228-1.719-1.228-2.736-1.175c0.613-2.667,1.105-4.895-0.667-5.79
	c-1.228-0.614-3.069,0.438-3.509,2.175c-0.229,0.947-1,0.667-1.508,0.333c-1.51-0.895-2.791,0.614-3.229,1.79
	c-0.562,1.561-0.614,3.684-0.896,5.298c-0.895-0.228-1.614-0.104-2.229,0.281c-2.666,1.667-1.509,4.614-1.509,7.298
	c-0.772-0.053-1.843,0.105-2.386,0.719C52.684,60.858,52.842,64.14,53.684,67.368L53.684,67.368z"/>
<path fill="#66A470" d="M45,68.315c-5.123-4.842-10.421-10.246-15.421-18.491c-1.052-1.79-2-1.105-1,0.772
	c3.948,7.578,9.913,13.368,15.474,19.053C44.333,71.21,43,71.931,42,71.931c-1.386-0.054-2.176-1.105-2.509-2
	c-2.123,0.332-5.842,0.613-6.351-1.51c-0.175-0.771,0.053-1.563,0.281-2.229c-2.509-0.387-5.895-1.789-6.018-4.28
	c-0.053-0.843,0.438-1.456,1-1.947c-1.947-0.948-5.895-1.79-4.965-4.79c0.228-0.771,0.947-1.333,1.667-1.79
	c-1.386-1.28-3.175-3-2.123-5.228c0.386-0.842,1.614-1.175,2.509-1.229c-0.667-2.79-1.053-5.175,0.719-6.07
	c1.281-0.614,3.175,0.386,3.684,2.175c0.281,1,1,0.72,1.562,0.386c1.562-0.947,2.895,0.614,3.333,1.895
	c0.614,1.614,0.947,3.333,1.228,5.07c0.895-0.228,1.667-0.104,2.333,0.281c2.791,1.719,1.895,5.019,1.842,7.86
	c0.842-0.053,1.842,0.053,2.457,0.666C45.333,61.702,45.877,64.931,45,68.315L45,68.315z"/>
<path fill="#66A470" d="M48.719,70.052l-0.228-8.965c0-0.842,1.667-0.842,1.72,0.053l0.438,8.686l2-1.456
	c0.947-0.666,1.844,0.509,0.947,1.229l-1.613,1.279c-0.387,0.28-0.562,0.614-0.613,1.053c-0.053,0.334-0.438,0.668-0.771,0.668
	h-2.123c-0.438,0-0.771-0.668-0.771-1.177l-2.613-1.053c-0.842-0.334,0-1.562,0.895-1.281L48.719,70.052L48.719,70.052z"/>
<path fill="#66A470" d="M48.281,59.069c-1.948-1.053-4.352-1.947-5.686-3.842c-0.771-1.176-0.843-2.332,0.229-4.069
	c-2.386-1.105-3.175-2.614-3-4.403c0.176-1.281,2-1.948,3-2c-1.176-2.509-4.684-5.79-2.842-8.526
	c0.562-0.842,1.667-1.562,2.79-1.386c-1.789-2.228-1.508-4.07-0.28-5.403c1.053-1.228,2.946-1.105,4.122-0.772
	c0.176-2.123,1.387-3.737,2.843-3.509c1.667,0.228,3.456,1.456,2.946,4.123c1.176,0.508,2.791,1.456,3.281,2.789
	c0.438,1.281,0,2.79-0.896,3.895c1.104-0.228,2-0.105,2.667,0.772c1.279,1.789-0.176,4.561-1.51,6.403
	c-0.385,0.562-0.771,1.456-0.104,2.175c0.667,0.772,1.281,1.895,1.281,2.842c-0.104,2.895-2.123,2.79-2.281,6.122
	c-0.104,2.457-1.509,4.509-4.896,4.842l-0.438-20.263c0-0.895-1.563-1.228-1.563,0.175L48.281,59.069L48.281,59.069z"/>
</svg>
