<?xml version="1.0" encoding="utf-8"?>
<!-- Generator: Adobe Illustrator 17.1.0, SVG Export Plug-In . SVG Version: 6.00 Build 0)  -->
<!DOCTYPE svg PUBLIC "-//W3C//DTD SVG 1.1//EN" "http://www.w3.org/Graphics/SVG/1.1/DTD/svg11.dtd">
<svg version="1.1" id="Layer_1" xmlns="http://www.w3.org/2000/svg" xmlns:xlink="http://www.w3.org/1999/xlink" x="0px" y="0px"
	 viewBox="0 309 612 167.8" enable-background="new 0 309 612 167.8" xml:space="preserve">
<g>
	<path fill="#66A470" d="M194.8,472.6h-1.7v-13.7h1.7V472.6z"/>
	<path fill="#66A470" d="M204.9,472.6v-7.7c0-0.6-0.3-1-1-1c-0.8,0-2.3,0.4-3.4,1v7.6h-1.7v-10.1h1.4l0.2,0.9c1.1-0.5,2.8-1.1,4-1.1
		c1.6,0,2.2,1,2.2,2.6v7.7h-1.7V472.6z"/>
	<path fill="#66A470" d="M215.4,472.4c-0.6,0.2-1.4,0.3-2.1,0.3c-1.7,0-2.5-0.6-2.5-2.3V464h-1.7v-1.4h1.7v-2.5l1.7-0.2v2.7h2.8
		l-0.1,1.4h-2.7v6.2c0,0.8,0.1,1.1,1,1.1c0.4,0,1-0.1,1.6-0.2L215.4,472.4z"/>
	<path fill="#66A470" d="M221.8,471.3c1,0,2.1-0.2,3.1-0.4l0.2,1.4c-1,0.3-2.3,0.5-3.6,0.5c-2.9,0-4-1.4-4-3.7v-3
		c0-2.1,1-3.8,3.9-3.8c2.9,0,3.8,1.7,3.8,3.8v2.1h-5.9v0.9C219.4,470.7,219.8,471.3,221.8,471.3z M219.4,466.8h4.3v-0.9
		c0-1.4-0.4-2.2-2.1-2.2c-1.6,0-2.2,0.8-2.2,2.2v0.9H219.4z"/>
	<path fill="#66A470" d="M233.1,464c-1,0.4-2.1,1.2-2.8,1.7v6.9h-1.7v-10.1h1.5l0.1,1.4c0.8-0.5,1.7-1.2,2.7-1.6L233.1,464z"/>
	<path fill="#66A470" d="M241.3,472.6v-7.7c0-0.6-0.3-1-1-1c-0.8,0-2.3,0.4-3.4,1v7.6h-1.7v-10.1h1.4l0.2,0.9c1.1-0.5,2.8-1.1,4-1.1
		c1.6,0,2.2,1,2.2,2.6v7.7h-1.7V472.6z"/>
	<path fill="#66A470" d="M253.8,472.6h-1.4l-0.1-0.8c-0.9,0.6-2.1,1-3.2,1c-1.8,0-2.7-1.1-2.7-2.9c0-2.1,1.1-2.8,3-2.8h2.7v-1.5
		c0-1.3-0.5-1.7-2.2-1.7c-1,0-2.3,0.2-3,0.3l-0.2-1.4c1-0.2,2.3-0.4,3.2-0.4c2.8,0,3.8,1.1,3.8,3.2v7H253.8z M252,468.5h-2.6
		c-1.1,0-1.4,0.3-1.4,1.3c0,1,0.2,1.4,1.4,1.4c0.9,0,1.8-0.3,2.6-0.9V468.5z"/>
	<path fill="#66A470" d="M262.4,472.4c-0.6,0.2-1.4,0.3-2.1,0.3c-1.7,0-2.5-0.6-2.5-2.3V464h-1.7v-1.4h1.7v-2.5l1.7-0.2v2.7h2.8
		l-0.1,1.4h-2.7v6.2c0,0.8,0.1,1.1,1,1.1c0.4,0,1-0.1,1.6-0.2L262.4,472.4z"/>
	<path fill="#66A470" d="M265.2,461v-2.5h1.7v2.5H265.2z M265.2,472.6v-10.1h1.7v10.1H265.2z"/>
	<path fill="#66A470" d="M274.2,472.8c-2.9,0-4.1-1.6-4.1-3.8v-2.9c0-2.1,1.2-3.8,4.1-3.8s4.1,1.6,4.1,3.8v2.9
		C278.3,471.1,277.1,472.8,274.2,472.8z M274.2,463.8c-1.5,0-2.4,0.8-2.4,2.2v3c0,1.4,0.8,2.2,2.4,2.2c1.5,0,2.4-0.8,2.4-2.2v-2.9
		C276.6,464.6,275.8,463.8,274.2,463.8z"/>
	<path fill="#66A470" d="M287.5,472.6v-7.7c0-0.6-0.3-1-1-1c-0.8,0-2.3,0.4-3.4,1v7.6h-1.7v-10.1h1.4l0.2,0.9c1.1-0.5,2.8-1.1,4-1.1
		c1.6,0,2.2,1,2.2,2.6v7.7h-1.7V472.6z"/>
	<path fill="#66A470" d="M299.9,472.6h-1.4l-0.1-0.8c-0.9,0.6-2.1,1-3.2,1c-1.8,0-2.7-1.1-2.7-2.9c0-2.1,1.1-2.8,3-2.8h2.7v-1.5
		c0-1.3-0.5-1.7-2.2-1.7c-1,0-2.3,0.2-3,0.3l-0.2-1.4c1-0.2,2.3-0.4,3.2-0.4c2.8,0,3.8,1.1,3.8,3.2v7H299.9z M298.2,468.5h-2.6
		c-1.1,0-1.4,0.3-1.4,1.3c0,1,0.2,1.4,1.4,1.4c0.9,0,1.8-0.3,2.6-0.9V468.5z"/>
	<path fill="#66A470" d="M303.4,472.6v-14.1l1.7-0.2v14.3H303.4z"/>
	<path fill="#66A470" d="M313.9,472.6v-13.7h8.1v1.6h-6.4v4.5h5.9v1.6h-5.9v5.9H313.9z"/>
	<path fill="#66A470" d="M332,472.6h-1.4l-0.1-0.8c-0.9,0.6-2.1,1-3.2,1c-1.8,0-2.7-1.1-2.7-2.9c0-2.1,1.1-2.8,3-2.8h2.7v-1.5
		c0-1.3-0.5-1.7-2.2-1.7c-1,0-2.3,0.2-3,0.3l-0.2-1.4c1-0.2,2.3-0.4,3.2-0.4c2.8,0,3.8,1.1,3.8,3.2v7H332z M330.2,468.5h-2.6
		c-1.1,0-1.4,0.3-1.4,1.3c0,1,0.2,1.4,1.4,1.4c0.9,0,1.8-0.3,2.6-0.9V468.5z"/>
	<path fill="#66A470" d="M334.9,469.1V466c0-2.3,0.9-3.7,4-3.7c0.9,0,1.8,0.1,2.4,0.3l-0.1,1.4c-0.8-0.2-1.5-0.2-2.2-0.2
		c-1.7,0-2.3,0.5-2.3,2.1v3.2c0,1.5,0.5,2.1,2.3,2.1c0.6,0,1.4-0.1,2.2-0.2l0.2,1.4c-0.5,0.2-1.5,0.3-2.4,0.3
		C335.6,472.8,334.9,471.4,334.9,469.1z"/>
	<path fill="#66A470" d="M344.3,461v-2.5h1.7v2.5H344.3z M344.3,472.6v-10.1h1.7v10.1H344.3z"/>
	<path fill="#66A470" d="M349.7,472.6v-14.1l1.7-0.2v14.3H349.7z"/>
	<path fill="#66A470" d="M355.2,461v-2.5h1.7v2.5H355.2z M355.2,472.6v-10.1h1.7v10.1H355.2z"/>
	<path fill="#66A470" d="M365.8,472.4c-0.6,0.2-1.4,0.3-2.1,0.3c-1.7,0-2.5-0.6-2.5-2.3V464h-1.7v-1.4h1.7v-2.5l1.7-0.2v2.7h2.8
		l-0.1,1.4H363v6.2c0,0.8,0.1,1.1,1.1,1.1c0.4,0,1-0.1,1.6-0.2L365.8,472.4z"/>
	<path fill="#66A470" d="M371.1,472.6h-0.8l-3.2-10.1h1.7l2.7,8.7l2.8-8.7h1.7l-3.4,10.1l-1.4,4h-1.6L371.1,472.6z"/>
	<path fill="#66A470" d="M384.9,461.5l-0.2,11.1H383l0.4-13.7h2.3l3.9,10.6l3.9-10.6h2.3l0.4,13.7h-1.7l-0.2-11.1l-3.5,9.3h-2.4
		L384.9,461.5z"/>
	<path fill="#66A470" d="M407,472.6h-1.4l-0.1-0.8c-0.9,0.6-2.1,1-3.2,1c-1.8,0-2.7-1.1-2.7-2.9c0-2.1,1.1-2.8,3-2.8h2.7v-1.5
		c0-1.3-0.5-1.7-2.2-1.7c-1,0-2.3,0.2-3,0.3l-0.2-1.4c1-0.2,2.3-0.4,3.2-0.4c2.8,0,3.8,1.1,3.8,3.2v7H407z M405.3,468.5h-2.6
		c-1.1,0-1.4,0.3-1.4,1.3c0,1,0.2,1.4,1.4,1.4c0.9,0,1.8-0.3,2.6-0.9V468.5z"/>
	<path fill="#66A470" d="M416.5,472.6v-7.7c0-0.6-0.3-1-1-1c-0.8,0-2.3,0.4-3.4,1v7.6h-1.7v-10.1h1.4l0.2,0.9c1.1-0.5,2.8-1.1,4-1.1
		c1.6,0,2.2,1,2.2,2.6v7.7h-1.7V472.6z"/>
	<path fill="#66A470" d="M428.9,472.6h-1.4l-0.1-0.8c-0.9,0.6-2.1,1-3.2,1c-1.8,0-2.7-1.1-2.7-2.9c0-2.1,1.1-2.8,3-2.8h2.7v-1.5
		c0-1.3-0.5-1.7-2.2-1.7c-1,0-2.3,0.2-3,0.3l-0.2-1.4c1-0.2,2.3-0.4,3.2-0.4c2.8,0,3.8,1.1,3.8,3.2v7H428.9z M427.2,468.5h-2.6
		c-1.1,0-1.4,0.3-1.4,1.3c0,1,0.2,1.4,1.4,1.4c0.9,0,1.8-0.3,2.6-0.9V468.5z"/>
	<path fill="#66A470" d="M440.2,463.6l-1.2,0.2c0.3,0.5,0.5,1.2,0.5,1.9v0.4c0,2.2-1.3,3.5-3.9,3.5c-0.3,0-0.8,0-1-0.1
		c-0.3,0.3-0.8,0.6-0.8,1.1s0.2,0.5,0.6,0.5c1.1,0.1,1.6,0.2,2.8,0.3c1.8,0.2,2.5,0.9,2.5,2.4c0,2.2-0.8,2.9-4.3,2.9
		c-1,0-2.5-0.2-3.7-0.4l0.2-1.4c1.1,0.2,2.4,0.4,3.4,0.4c2.6,0,2.8-0.3,2.8-1.4c0-0.9-0.3-1-1.5-1.1c-1.1-0.1-1.5-0.1-2.7-0.2
		c-1.5-0.1-1.9-0.9-1.9-1.8c0-0.8,0.4-1.4,1-1.7c-1-0.5-1.4-1.5-1.4-2.8v-0.4c0-2.2,1.1-3.5,3.9-3.5c0.5,0,1.2,0.1,1.7,0.2h2.9
		L440.2,463.6L440.2,463.6z M435.6,463.8c-1.6,0-2.3,0.5-2.3,2.1v0.4c0,1.5,0.6,1.9,2.3,1.9s2.3-0.6,2.3-1.9v-0.4
		C437.9,464.4,437.3,463.8,435.6,463.8z"/>
	<path fill="#66A470" d="M446.6,471.3c1,0,2.1-0.2,3.1-0.4l0.2,1.4c-1,0.3-2.3,0.5-3.6,0.5c-2.9,0-4-1.4-4-3.7v-3
		c0-2.1,1-3.8,3.9-3.8c2.9,0,3.8,1.7,3.8,3.8v2.1h-5.9v0.9C444.1,470.7,444.5,471.3,446.6,471.3z M444.1,466.8h4.3v-0.9
		c0-1.4-0.4-2.2-2.1-2.2s-2.2,0.8-2.2,2.2v0.9H444.1z"/>
	<path fill="#66A470" d="M465.3,472.6v-7.7c0-0.6-0.3-1-1-1c-0.9,0-2.3,0.4-3.4,1v7.6h-1.7v-7.7c0-0.6-0.3-1-1-1
		c-0.8,0-2.3,0.4-3.4,1v7.6h-1.7v-10.1h1.4l0.2,0.9c1.1-0.5,2.8-1.1,4-1.1c1,0,1.6,0.4,1.9,1.1c1.2-0.5,2.9-1.1,4.1-1.1
		c1.6,0,2.2,1,2.2,2.6v7.7h-1.7V472.6z"/>
	<path fill="#66A470" d="M474.2,471.3c1,0,2.1-0.2,3.1-0.4l0.2,1.4c-1,0.3-2.3,0.5-3.6,0.5c-2.9,0-4-1.4-4-3.7v-3
		c0-2.1,1-3.8,3.9-3.8c2.9,0,3.8,1.7,3.8,3.8v2.1h-5.9v0.9C471.9,470.7,472.3,471.3,474.2,471.3z M471.9,466.8h4.3v-0.9
		c0-1.4-0.4-2.2-2.1-2.2c-1.6,0-2.2,0.8-2.2,2.2v0.9H471.9z"/>
	<path fill="#66A470" d="M487,472.6v-7.7c0-0.6-0.3-1-1-1c-0.8,0-2.3,0.4-3.4,1v7.6h-1.7v-10.1h1.4l0.2,0.9c1.1-0.5,2.8-1.1,4-1.1
		c1.6,0,2.2,1,2.2,2.6v7.7H487V472.6z"/>
	<path fill="#66A470" d="M497.6,472.4c-0.6,0.2-1.4,0.3-2.1,0.3c-1.7,0-2.5-0.6-2.5-2.3V464h-1.7v-1.4h1.7v-2.5l1.7-0.2v2.7h2.8
		l-0.1,1.4h-2.7v6.2c0,0.8,0.1,1.1,1.1,1.1c0.4,0,1-0.1,1.6-0.2L497.6,472.4z"/>
	<path fill="#66A470" d="M515.8,472.6h-1.8l-1.1-3.2H507l-1.1,3.2h-1.8l4.6-13.7h2.4L515.8,472.6z M509.9,460.2l-2.5,7.6h4.9
		L509.9,460.2z"/>
	<path fill="#66A470" d="M521.2,472.8c-1,0-2.4-0.2-3.1-0.5l0.2-1.4c0.9,0.2,1.9,0.4,2.8,0.4c1.6,0,1.8-0.3,1.8-1.4
		s-0.1-1.2-2.1-1.7c-2.5-0.6-2.7-1.1-2.7-3.2c0-1.8,0.9-2.7,3.5-2.7c1,0,2.1,0.1,2.8,0.3l-0.1,1.4c-0.9-0.2-1.9-0.3-2.8-0.3
		c-1.5,0-1.7,0.3-1.7,1.3c0,1.1,0,1.3,1.7,1.7c2.9,0.8,3.1,1.1,3.1,3C524.6,471.9,524.1,472.8,521.2,472.8z"/>
	<path fill="#66A470" d="M530.7,472.8c-1,0-2.4-0.2-3.1-0.5l0.2-1.4c0.9,0.2,1.9,0.4,2.8,0.4c1.6,0,1.8-0.3,1.8-1.4
		s-0.1-1.2-2.1-1.7c-2.5-0.6-2.7-1.1-2.7-3.2c0-1.8,0.9-2.7,3.5-2.7c1,0,2.1,0.1,2.8,0.3l-0.1,1.4c-0.9-0.2-1.9-0.3-2.8-0.3
		c-1.5,0-1.7,0.3-1.7,1.3c0,1.1,0,1.3,1.7,1.7c2.9,0.8,3.1,1.1,3.1,3C534,471.9,533.5,472.8,530.7,472.8z"/>
	<path fill="#66A470" d="M540.9,472.8c-2.9,0-4.1-1.6-4.1-3.8v-2.9c0-2.1,1.2-3.8,4.1-3.8s4.1,1.6,4.1,3.8v2.9
		C545,471.1,543.8,472.8,540.9,472.8z M540.9,463.8c-1.5,0-2.4,0.8-2.4,2.2v3c0,1.4,0.8,2.2,2.4,2.2c1.5,0,2.4-0.8,2.4-2.2v-2.9
		C543.2,464.6,542.5,463.8,540.9,463.8z"/>
	<path fill="#66A470" d="M547.6,469.1V466c0-2.3,0.9-3.7,4-3.7c0.9,0,1.8,0.1,2.4,0.3l-0.1,1.4c-0.8-0.2-1.5-0.2-2.2-0.2
		c-1.7,0-2.3,0.5-2.3,2.1v3.2c0,1.5,0.5,2.1,2.3,2.1c0.6,0,1.4-0.1,2.2-0.2l0.2,1.4c-0.5,0.2-1.5,0.3-2.4,0.3
		C548.3,472.8,547.6,471.4,547.6,469.1z"/>
	<path fill="#66A470" d="M557,461v-2.5h1.7v2.5H557z M557,472.6v-10.1h1.7v10.1H557z"/>
	<path fill="#66A470" d="M569.5,472.6h-1.4l-0.1-0.8c-0.9,0.6-2.1,1-3.2,1c-1.8,0-2.7-1.1-2.7-2.9c0-2.1,1.1-2.8,3-2.8h2.7v-1.5
		c0-1.3-0.5-1.7-2.2-1.7c-1,0-2.3,0.2-3,0.3l-0.2-1.4c1-0.2,2.3-0.4,3.2-0.4c2.8,0,3.8,1.1,3.8,3.2v7H569.5z M567.8,468.5h-2.6
		c-1.1,0-1.4,0.3-1.4,1.3c0,1,0.2,1.4,1.4,1.4c0.9,0,1.8-0.3,2.6-0.9V468.5z"/>
	<path fill="#66A470" d="M578.2,472.4c-0.6,0.2-1.4,0.3-2.1,0.3c-1.7,0-2.5-0.6-2.5-2.3V464h-1.7v-1.4h1.7v-2.5l1.7-0.2v2.7h2.8
		L578,464h-2.7v6.2c0,0.8,0.1,1.1,1.1,1.1c0.4,0,1-0.1,1.6-0.2L578.2,472.4z"/>
	<path fill="#66A470" d="M581,461v-2.5h1.7v2.5H581z M581,472.6v-10.1h1.7v10.1H581z"/>
	<path fill="#66A470" d="M589.9,472.8c-2.9,0-4.1-1.6-4.1-3.8v-2.9c0-2.1,1.2-3.8,4.1-3.8c2.9,0,4.1,1.6,4.1,3.8v2.9
		C594.1,471.1,592.9,472.8,589.9,472.8z M589.9,463.8c-1.5,0-2.4,0.8-2.4,2.2v3c0,1.4,0.8,2.2,2.4,2.2c1.5,0,2.4-0.8,2.4-2.2v-2.9
		C592.3,464.6,591.6,463.8,589.9,463.8z"/>
	<path fill="#66A470" d="M603.3,472.6v-7.7c0-0.6-0.3-1-1-1c-0.8,0-2.3,0.4-3.4,1v7.6h-1.7v-10.1h1.4l0.2,0.9c1.1-0.5,2.8-1.1,4-1.1
		c1.6,0,2.2,1,2.2,2.6v7.7h-1.7V472.6z"/>
</g>
<rect x="193.7" y="349.5" fill="#66A470" width="17.9" height="94.7"/>
<rect x="193.7" y="444.1" fill="#66A470" width="17.9" height="0.2"/>
<rect x="230.1" y="444.1" fill="#66A470" width="17.9" height="0.2"/>
<polygon fill="#66A470" points="285.7,406.2 285.7,390.4 248,390.4 248,365.2 288.8,365.2 288.8,349.5 230.1,349.5 230.1,444.1 
	248,444.1 248,406.2 "/>
<polygon fill="#66A470" points="301.9,444.3 320.3,444.3 320.3,444.1 302,444.1 "/>
<polygon fill="#66A470" points="375.3,349.5 350.8,416.8 326.3,349.5 306.2,349.5 302,444.1 320.3,444.1 321.9,382.9 339.4,432.1 
	362.2,432.1 379.7,382.9 381.3,444.1 399.6,444.1 395.4,349.5 "/>
<polygon fill="#66A470" points="381.3,444.3 399.6,444.3 399.6,444.1 381.3,444.1 "/>
<polygon fill="#66A470" points="478.4,444.3 497.2,444.3 497.1,444.1 478.2,444.1 "/>
<polygon fill="#66A470" points="412.2,444.3 431,444.3 431.1,444.1 412.3,444.1 "/>
<path fill="#66A470" d="M485.7,412.1c-2.7-0.4-5.4-0.9-8.2-1.1c-0.3,0-0.6,0-1.1-0.1c-0.2,0-0.3,0-0.5,0h-0.5c-0.8,0-1.4,0-2.2-0.1
	c-0.8,0-1.4,0-2.2,0h-2.2l-2.2,0.1l-1.1,0.1c-0.2,0-0.3,0-0.5,0l-0.5,0.1c-0.8,0.1-1.4,0.1-2.2,0.2c-0.3,0-0.8,0.1-1.1,0.1
	s-0.6,0.1-1.1,0.1c-2.8,0.4-5.5,0.9-8.2,1.5c-1.3,0.3-2.6,0.6-3.9,1c-1.3,0.3-2.5,0.8-3.7,1.1c-1.2,0.3-2.4,0.8-3.5,1.1
	c-0.5,0.2-1.2,0.3-1.7,0.5c-0.5,0.2-1.1,0.4-1.6,0.5c-1.1,0.3-2.1,0.8-3,1.1s-1.8,0.8-2.7,1.1c-0.9,0.3-1.6,0.6-2.4,0.9
	c-0.4,0.1-0.8,0.3-1.1,0.4s-0.6,0.3-1,0.4c-2.5,1-3.9,1.5-3.9,1.5s1.1-1.1,3.1-2.8c0.5-0.4,1.1-1,1.7-1.4c0.6-0.5,1.4-1,2.2-1.5
	c0.3-0.3,0.8-0.5,1.2-0.9c0.4-0.3,0.9-0.5,1.3-0.9c0.9-0.5,1.8-1.1,2.8-1.7c0.5-0.3,1-0.6,1.5-0.9c0.5-0.3,1.1-0.5,1.6-0.9
	c0.5-0.3,1.1-0.5,1.6-0.9l13.8-46.7l11.5,39.6h0.2c0.8,0,1.6-0.1,2.4-0.1s1.6,0,2.4,0s1.6,0,2.4,0c1.6,0.1,3.1,0.2,4.8,0.4
	c2.3,0.2,4.4,0.6,6.6,1.2L467,349.5h-25.1l-29.8,94.7h18.8l5.9-19.5H472l6.1,19.5h18.8l-10.1-31.8
	C486.6,412.3,486.1,412.2,485.7,412.1z"/>
<path opacity="0.2" fill="#66A470" enable-background="new    " d="M130.2,460.6L130.2,460.6L130.2,460.6z"/>
<path opacity="0.2" fill="#66A470" enable-background="new    " d="M130.1,460.8v-0.1C130,460.9,130,460.9,130.1,460.8z"/>
<path opacity="0.2" fill="#66A470" enable-background="new    " d="M130.2,440.6v9.1l0,0V440.6z"/>
<g>
	<path fill="#66A470" d="M36.8,434.7c0.2-5.3,0.5-10.6,1.2-15.8c0.2-2.3,0.5-4.5,0.9-6.8c-2.1-1.9-3.9-4-5.7-6.1
		c-1.8-1.9-3.5-4-5.1-6.1c-0.5-0.8-1.1-1.5-1.6-2.2l-0.3,1.3c-0.8,5-1.4,9.9-1.6,14.9c-0.3,4.6-0.3,9.1-0.2,13.4
		c0.1,3.9,0.3,7.7,0.6,11.6c3.5,5.1,7.6,9.6,12.1,13.7c-0.1-1.3-0.1-2.5-0.1-3.8C36.5,444.2,36.5,439.4,36.8,434.7z"/>
	<path fill="#66A470" d="M23.2,366.9c0.4,1.4,1,3,1.6,4.5c1.1-2.2,2.5-4.8,3.9-7.1c0.5-1,1.2-2.1,1.8-2.9c0.2-0.3,0.3-0.5,0.5-0.9
		c0.2-0.4,0.5-0.9,0.9-1.2c0.1-0.2,0.3-0.4,0.4-0.6s0.3-0.4,0.4-0.6c0.3-0.4,0.5-0.8,0.9-1.2c0.2-0.3,0.4-0.5,0.6-0.9
		c0.6-0.9,1.4-1.7,2.1-2.6c0.1-0.2,0.3-0.4,0.4-0.5c0.3-0.3,0.6-0.8,1-1.1l1.5-1.6c0.2-0.3,0.5-0.5,0.8-0.9c-0.6-1-1.2-1.9-1.7-2.9
		c-0.3-0.5-0.5-1-0.9-1.5c-0.2-0.5-0.5-1-0.8-1.5c-1-2.1-1.8-4-2.6-5.8c-0.1-0.2-0.1-0.3-0.2-0.5c-5.4,5.3-10.1,11.5-13.7,18.2
		c0.2,1.1,0.4,2.4,0.8,4C21.6,361.2,22.4,363.8,23.2,366.9z"/>
	<path fill="#66A470" d="M16.8,392.8l0.5-2.1l1-3.1l0.4-1.3c-0.9-1.5-1.6-2.9-2.4-4.3c-1.3-2.5-2.5-4.9-3.5-7.1
		c-1.4,6.1-2.2,12.2-2.2,18.7c0,6.4,0.8,12.5,2.2,18.5c0.8-5,1.7-10.1,2.9-15L16.8,392.8z"/>
	<path fill="#66A470" d="M73,435.7c-5-2.4-9.9-5.1-14.7-8.1c-3-1.9-6.1-4.1-8.9-6.3c-0.1,4.4,0,8.9,0.2,13.3s0.6,8.9,1.1,13.3
		c0.6,5.5,1.4,10.8,2.5,16.1c7.9,4.1,16.7,6.9,25.8,8v-33.5C77.1,437.7,75,436.7,73,435.7z"/>
	<path fill="#66A470" d="M126.6,450.4c-1.6-0.2-3.5-0.4-5.3-0.6c-1-0.1-1.8-0.3-2.9-0.4c-0.5-0.1-1-0.1-1.5-0.2s-1-0.2-1.5-0.2
		c-1-0.2-2.1-0.3-3.1-0.5c-1.1-0.2-2.2-0.4-3.2-0.6c-0.5-0.1-1.1-0.2-1.6-0.3c-0.5-0.1-1.1-0.2-1.7-0.4c-1.1-0.2-2.3-0.5-3.5-0.8
		c-4.6-1.1-9.4-2.6-14.4-4.2c-0.6-0.2-1.2-0.4-1.8-0.6v31.4c0.9,0,1.7,0,2.7,0c15.1,0,29.4-4.4,41.3-12v-9.8
		C129,450.7,127.8,450.6,126.6,450.4z"/>
	<path fill="#66A470" d="M45.3,331.8c0.1,0.8,0.2,1.5,0.3,2.3c0.3,1.6,0.6,3.2,1.2,5.1c0.1,0.4,0.3,0.9,0.4,1.4
		c0.1,0.4,0.3,0.9,0.4,1.4c0,0.1,0,0.1,0.1,0.2c1.5-1.2,3-2.4,4.6-3.6c4.3-3,9-5.7,13.9-8c4.3-1.9,8.8-3.6,13.4-4.9
		c0.6-0.2,1.4-0.3,2.1-0.5c0.3-0.1,0.8-0.2,1.1-0.3l1.5-0.4l4.3-0.9c0.6-0.1,1.2-0.2,1.8-0.3c0.3,0,0.6-0.1,1-0.1s0.6-0.1,1-0.1
		c0.5-0.1,1.1-0.2,1.6-0.2l2.4-0.3c0.2,0,0.5-0.1,0.8-0.1c0.4-0.1,1-0.1,1.4-0.2l3.9-0.3c0.5,0,1-0.1,1.4-0.1l4.5-0.2l0,0h0.4
		l3.9,2.2l3.7,2.3l2.7,1.7c0.1,0.1,0.2,0.1,0.3,0.2c0.2,0.1,0.4,0.3,0.6,0.4l3,2.2c2.2,1.6,4.5,3.6,7,5.9v-10.3
		c-12-7.6-26.2-12-41.4-12c-16.2,0-31.4,5.1-43.8,13.6c0,0.5,0.1,1.2,0.1,1.8C45.1,330.4,45.2,331.1,45.3,331.8z"/>
	<path fill="#66A470" d="M77,377.7c-0.6-0.2-1.4-0.5-2.2-0.9c-0.8-0.3-1.5-0.6-2.4-1.1c-0.4-0.2-0.9-0.3-1.3-0.5
		c-0.4-0.2-0.9-0.4-1.3-0.6c-0.4-0.2-0.9-0.4-1.3-0.6s-1-0.4-1.4-0.8c-1-0.5-1.8-1.1-2.8-1.5c-1-0.5-1.9-1.2-2.9-1.7
		c-0.4-0.2-0.9-0.5-1.3-0.9c-0.4,1.1-1,2.1-1.4,3.1c-2.1,5-3.8,10.3-5.1,15.6c-1.3,5.3-2.3,10.7-3,16.1c-0.3,2.4-0.5,4.8-0.8,7.1
		c0.2,0.2,0.3,0.3,0.5,0.5c3.7,3.7,7.7,7.2,11.9,10.5c4.2,3.2,8.8,6.2,13.3,8.9c1.1,0.6,2.3,1.3,3.4,1.9v-54.4h-0.1
		C78.4,378.1,77.7,377.9,77,377.7z"/>
	<path fill="#66A470" d="M54.4,364.8c-0.1-0.1-0.2-0.1-0.3-0.2c-0.4-0.4-1-0.8-1.4-1.2c-1-0.9-1.8-1.7-2.8-2.6
		c-1.8-1.7-3.6-3.6-5.1-5.5c-0.1-0.2-0.3-0.3-0.4-0.5l-1,1.2c-0.2,0.3-0.5,0.8-0.8,1.1c-0.1,0.2-0.3,0.4-0.4,0.6
		c-0.5,0.8-1.2,1.6-1.7,2.5c-0.2,0.3-0.4,0.6-0.6,1c-0.2,0.3-0.4,0.8-0.6,1.1c-0.1,0.2-0.2,0.4-0.4,0.6c-0.1,0.2-0.2,0.4-0.4,0.6
		c-0.2,0.4-0.4,0.8-0.6,1.1c-0.2,0.3-0.3,0.5-0.5,0.9c-0.5,0.9-1,1.8-1.5,2.8c-1.3,2.6-2.5,5.2-3.4,7.6c-0.1,0.4-0.3,0.8-0.4,1.2
		c-0.3,0.9-0.6,1.7-1,2.6l-0.5,1.9l-0.4,1.4c0.9,1.7,1.7,3.4,2.7,5.1c1.1,1.9,2.4,3.9,3.7,5.9c1.3,1.9,2.7,4,4.2,5.9
		c0.2,0.2,0.3,0.4,0.5,0.6c1.2-5.2,2.6-10.4,4.3-15.4c1.9-5.6,4.2-11,6.8-16.1C52.9,367.6,53.6,366.2,54.4,364.8z"/>
	<path fill="#66A470" d="M130.2,341.1c-0.1-0.2-0.3-0.3-0.4-0.5c-2.8-3.2-5.6-5.9-8.1-8.1l-2.8-2.4c-0.2-0.1-0.3-0.3-0.5-0.4
		c-0.1-0.1-0.2-0.2-0.3-0.2l-2.5-1.9L112,325l-3.5-2.3l-3.9,1.7l-4.2,2.1l-2.4,1.2c-0.1,0.1-0.2,0.1-0.3,0.2
		c-0.2,0.1-0.4,0.2-0.6,0.3l-3.1,1.8c-2.8,1.7-6.1,4-9.3,6.6c-3.5,2.9-6.8,6.1-9.7,9.3c-3.2,3.7-6.3,7.7-9,11.9
		c-1.3,2.1-2.6,4.2-3.7,6.5c0.2,0.2,0.4,0.4,0.6,0.6c0.4,0.4,0.8,0.8,1.2,1.2c0.9,0.8,1.6,1.4,2.4,2.2c0.9,0.6,1.6,1.3,2.4,1.9
		c0.4,0.3,0.8,0.6,1.2,0.9c0.4,0.3,0.8,0.5,1.2,0.9s0.8,0.5,1.1,0.9s0.8,0.5,1.1,0.8c0.8,0.5,1.4,1,2.2,1.4c0.6,0.4,1.3,0.9,1.9,1.2
		c0.5,0.3,1,0.6,1.4,0.9v-35.6l51.1,11.6v-12H130.2z"/>
	<path fill="#66A470" d="M130.2,360.6l-44.1-9.1v84.7c1.2,0.5,2.3,1.1,3.5,1.6c4.6,2.1,9.2,3.8,13.6,5.3c1.1,0.3,2.2,0.8,3.2,1.1
		c0.5,0.2,1.1,0.3,1.6,0.5c0.5,0.1,1.1,0.3,1.6,0.4c1.1,0.3,2.1,0.6,3.1,0.9c1.1,0.2,2.1,0.5,3,0.8c0.5,0.1,1,0.2,1.5,0.3
		s1,0.2,1.4,0.3c1,0.2,1.8,0.4,2.8,0.6c1.8,0.4,3.6,0.8,5.2,1.1c1.2,0.2,2.3,0.4,3.2,0.5v-9.1v-80H130.2z"/>
	<path fill="#66A470" d="M55.3,356.3c0.6,0.9,1.4,1.8,2.1,2.7c0.1,0.2,0.3,0.3,0.4,0.5c1.1-1.6,2.3-3.2,3.4-4.9
		c3.2-4.3,6.7-8.2,10.5-11.8c3.4-3.1,7-6.2,10.9-8.9l2.7-1.7c0.5-0.3,1.2-0.8,1.7-1.1c0.3-0.2,0.5-0.3,0.9-0.5
		c0.1-0.1,0.3-0.2,0.4-0.2c0.3-0.2,0.5-0.3,0.9-0.4l1.3-0.6c0.3-0.1,0.5-0.3,0.9-0.4c0.5-0.3,1.1-0.5,1.5-0.9l3.4-1.6
		c0.2-0.1,0.4-0.2,0.8-0.3c0.1,0,0.2-0.1,0.3-0.1l2.9-1.3l3.6-1.4c-0.3,0-0.8,0.1-1.1,0.2l-3.9,0.6c-0.4,0.1-0.9,0.2-1.3,0.2
		c-0.2,0-0.5,0.1-0.8,0.1l-2.3,0.4c-0.5,0.1-1,0.2-1.5,0.3c-0.3,0.1-0.6,0.1-0.9,0.2c-0.3,0.1-0.6,0.1-0.9,0.2
		c-0.5,0.1-1.1,0.3-1.7,0.4l-4.1,1.2l-1.4,0.4c-0.3,0.1-0.6,0.2-1.1,0.3c-0.6,0.2-1.3,0.4-1.9,0.6c-4.3,1.6-8.4,3.5-12.4,5.6
		c-4.4,2.5-8.7,5.3-12.4,8.4c-1.9,1.6-3.8,3.2-5.5,5c0.4,0.9,0.9,1.7,1.3,2.6C52.7,352.5,54,354.3,55.3,356.3z"/>
	<path fill="#66A470" d="M151.6,396.2c-0.4-5.5-1.2-10.9-2.4-16.2c-1.2-5.4-2.8-10.5-4.8-15.2c-1.3-3.1-2.7-6.2-4.3-9.2
		c-0.8-1.4-1.6-2.8-2.4-4.1c-0.1-0.1-0.2-0.3-0.3-0.4v99.9h0.1c0.9-1.2,1.7-2.4,2.6-3.7c3-4.2,6.4-9.3,9.5-14.7
		c0.2-1.4,0.4-2.7,0.6-4c0.8-5.3,1.3-10.6,1.5-15.9C152,407.1,152,401.6,151.6,396.2z"/>
	<path fill="#66A470" d="M140.1,335.6c-0.9-1-1.8-1.9-2.7-2.8v11.4c1,1.1,1.8,2.3,2.7,3.4c0.4,0.5,0.8,1,1.1,1.5
		c3,4.2,5.8,8.7,8.2,13.4c2.5,4.9,4.5,10.2,6.3,15.8c1.7,5.5,3,11.2,3.9,17.1c0.6,4,1.1,8,1.3,12.1c1.3-4.6,2.1-9.3,2.1-13.6
		C163.1,372,154.6,351.3,140.1,335.6z"/>
</g>
<path opacity="0.2" fill="#66A470" enable-background="new    " d="M130.1,460.7C130.1,460.7,130.1,460.6,130.1,460.7
	C130.1,460.6,130.1,460.6,130.1,460.7L130.1,460.7z"/>
<path opacity="0.2" fill="#66A470" enable-background="new    " d="M130.2,450.8C130.1,450.8,130.1,450.8,130.2,450.8v9.8l0,0l0,0
	V450.8z"/>
<g>
	<path fill="#66A470" d="M483.7,350.2h-4.1v-1.6h9.9v1.6h-4.1v12.1h-1.7L483.7,350.2L483.7,350.2z"/>
	<path fill="#66A470" d="M493.4,351.2l-0.2,11.1h-1.7l0.4-13.7h2.3l3.9,10.6l3.9-10.6h2.3l0.4,13.7h-1.7l-0.1-11.1l-3.5,9.3H497
		L493.4,351.2z"/>
</g>
</svg>
